{
  "name": "bs-tea-feather-icons",
  "version": "1.0.0",
  "namespace": false,
  "sources": [ { "dir": "src/", "subdirs": true } ],
  "package-specs": [{"module": "es6"}],
  "bs-dependencies": ["bucklescript-tea"],
  "bsc-flags": ["-bs-super-errors", ["-bs-g"]]
}
